<?xml version="1.0" encoding="iso-8859-1"?>
<!-- Generator: Adobe Illustrator 16.0.0, SVG Export Plug-In . SVG Version: 6.00 Build 0)  -->
<!DOCTYPE svg PUBLIC "-//W3C//DTD SVG 1.1//EN" "http://www.w3.org/Graphics/SVG/1.1/DTD/svg11.dtd">
<svg xmlns="http://www.w3.org/2000/svg" xmlns:xlink="http://www.w3.org/1999/xlink" version="1.1" id="Capa_1" x="0px" y="0px" width="512px" height="512px" viewBox="0 0 255.682 255.681" style="enable-background:new 0 0 255.682 255.681;" xml:space="preserve">
<g>
	<g>
		<path d="M0,186.384c0,17.129,13.936,31.064,31.064,31.064h193.553c17.128,0,31.064-13.936,31.064-31.064V69.297    c0-17.128-13.937-31.064-31.064-31.064H31.064C13.936,38.233,0,52.168,0,69.297V186.384z M14.337,69.297    c0-9.225,7.502-16.727,16.727-16.727h193.553c9.222,0,16.727,7.502,16.727,16.727v117.087c0,9.223-7.505,16.727-16.727,16.727    H31.064c-9.225,0-16.727-7.504-16.727-16.727V69.297z" fill="#FFFFFF"/>
		<path d="M41.798,179.729c0,8.905,7.246,16.157,16.148,16.157s16.148-7.252,16.148-16.157v-73.285    c4.641-4.392,7.318-10.503,7.318-17.014c0-12.937-10.529-23.466-23.466-23.466c-12.937,0-23.466,10.529-23.466,23.466    c0,6.506,2.681,12.622,7.318,17.014V179.729z M57.946,80.309c5.033,0,9.129,4.091,9.129,9.126c0,3.064-1.536,5.904-4.107,7.61    l-3.211,2.126v80.558c0,0.999-0.812,1.82-1.811,1.82c-0.999,0-1.811-0.821-1.811-1.82V99.171l-3.211-2.126    c-2.572-1.701-4.107-4.546-4.107-7.61C48.817,84.399,52.913,80.309,57.946,80.309z" fill="#FFFFFF"/>
		<path d="M105.14,105.737h25.091c2.637,0,4.778-2.137,4.778-4.779v-25.09c0-2.642-2.142-4.779-4.778-4.779H105.14    c-2.637,0-4.779,2.138-4.779,4.779v25.09C100.361,103.6,102.503,105.737,105.14,105.737z M109.919,80.647h15.532v15.532h-15.532    V80.647z" fill="#FFFFFF"/>
		<path d="M148.151,105.737h25.091c2.637,0,4.779-2.137,4.779-4.779v-25.09c0-2.642-2.143-4.779-4.779-4.779h-25.091    c-2.637,0-4.778,2.138-4.778,4.779v25.09C143.373,103.6,145.515,105.737,148.151,105.737z M152.931,80.647h15.532v15.532h-15.532    V80.647z" fill="#FFFFFF"/>
		<path d="M191.163,105.737h25.091c2.637,0,4.779-2.137,4.779-4.779v-25.09c0-2.642-2.143-4.779-4.779-4.779h-25.091    c-2.637,0-4.778,2.138-4.778,4.779v25.09C186.385,103.6,188.526,105.737,191.163,105.737z M195.942,80.647h15.532v15.532h-15.532    V80.647z" fill="#FFFFFF"/>
		<path d="M105.14,148.75h25.091c2.637,0,4.778-2.138,4.778-4.779v-25.09c0-2.642-2.142-4.779-4.778-4.779H105.14    c-2.637,0-4.779,2.138-4.779,4.779v25.09C100.361,146.612,102.503,148.75,105.14,148.75z M109.919,123.659h15.532v15.532h-15.532    V123.659z" fill="#FFFFFF"/>
		<path d="M148.151,148.75h25.091c2.637,0,4.779-2.138,4.779-4.779v-25.09c0-2.642-2.143-4.779-4.779-4.779h-25.091    c-2.637,0-4.778,2.138-4.778,4.779v25.09C143.373,146.612,145.515,148.75,148.151,148.75z M152.931,123.659h15.532v15.532h-15.532    V123.659z" fill="#FFFFFF"/>
		<path d="M191.163,148.75h25.091c2.637,0,4.779-2.138,4.779-4.779v-25.09c0-2.642-2.143-4.779-4.779-4.779h-25.091    c-2.637,0-4.778,2.138-4.778,4.779v25.09C186.385,146.612,188.526,148.75,191.163,148.75z M195.942,123.659h15.532v15.532h-15.532    V123.659z" fill="#FFFFFF"/>
		<path d="M105.14,191.761h25.091c2.637,0,4.778-2.138,4.778-4.779v-25.09c0-2.642-2.142-4.779-4.778-4.779H105.14    c-2.637,0-4.779,2.138-4.779,4.779v25.09C100.361,189.624,102.503,191.761,105.14,191.761z M109.919,166.67h15.532v15.532h-15.532    V166.67z" fill="#FFFFFF"/>
		<path d="M148.151,191.761h25.091c2.637,0,4.779-2.138,4.779-4.779v-25.09c0-2.642-2.143-4.779-4.779-4.779h-25.091    c-2.637,0-4.778,2.138-4.778,4.779v25.09C143.373,189.624,145.515,191.761,148.151,191.761z M152.931,166.67h15.532v15.532    h-15.532V166.67z" fill="#FFFFFF"/>
		<path d="M191.163,191.761h25.091c2.637,0,4.779-2.138,4.779-4.779v-25.09c0-2.642-2.143-4.779-4.779-4.779h-25.091    c-2.637,0-4.778,2.138-4.778,4.779v25.09C186.385,189.624,188.526,191.761,191.163,191.761z M195.942,166.67h15.532v15.532    h-15.532V166.67z" fill="#FFFFFF"/>
	</g>
</g>
<g>
</g>
<g>
</g>
<g>
</g>
<g>
</g>
<g>
</g>
<g>
</g>
<g>
</g>
<g>
</g>
<g>
</g>
<g>
</g>
<g>
</g>
<g>
</g>
<g>
</g>
<g>
</g>
<g>
</g>
</svg>
